C:\Users\arubalac\AnypointStudio\Workspace-3.8.0\AGWDeploymentService_1.6.9LT(Mavenize)-NPRD\src\main\java\com\cisco\validate\ProxyValidator.java
C:\Users\arubalac\AnypointStudio\Workspace-3.8.0\AGWDeploymentService_1.6.9LT(Mavenize)-NPRD\src\main\java\com\cisco\main\OrgAndAPIDetailExtractExecutor.java
C:\Users\arubalac\AnypointStudio\Workspace-3.8.0\AGWDeploymentService_1.6.9LT(Mavenize)-NPRD\src\main\java\com\cisco\properties\DefaultConfigPropertyGen.java
C:\Users\arubalac\AnypointStudio\Workspace-3.8.0\AGWDeploymentService_1.6.9LT(Mavenize)-NPRD\src\main\java\com\cisco\main\ProxyFilterExecutor.java
C:\Users\arubalac\AnypointStudio\Workspace-3.8.0\AGWDeploymentService_1.6.9LT(Mavenize)-NPRD\src\main\java\com\cisco\main\DeleteAppInRepoExecutor.java
C:\Users\arubalac\AnypointStudio\Workspace-3.8.0\AGWDeploymentService_1.6.9LT(Mavenize)-NPRD\src\main\java\com\cisco\proxy\RAMLBasedProxyUpdater.java
C:\Users\arubalac\AnypointStudio\Workspace-3.8.0\AGWDeploymentService_1.6.9LT(Mavenize)-NPRD\src\main\java\com\cisco\properties\DCClusterNameExtractor.java
C:\Users\arubalac\AnypointStudio\Workspace-3.8.0\AGWDeploymentService_1.6.9LT(Mavenize)-NPRD\src\main\java\com\cisco\exception\SharedGWFileCheckException.java
C:\Users\arubalac\AnypointStudio\Workspace-3.8.0\AGWDeploymentService_1.6.9LT(Mavenize)-NPRD\src\main\java\com\cisco\bean\ValidationResponse.java
C:\Users\arubalac\AnypointStudio\Workspace-3.8.0\AGWDeploymentService_1.6.9LT(Mavenize)-NPRD\src\main\java\com\cisco\main\ClusterListConstructionExecutor.java
C:\Users\arubalac\AnypointStudio\Workspace-3.8.0\AGWDeploymentService_1.6.9LT(Mavenize)-NPRD\src\main\java\com\cisco\properties\DomainAndEnvEditor.java
C:\Users\arubalac\AnypointStudio\Workspace-3.8.0\AGWDeploymentService_1.6.9LT(Mavenize)-NPRD\src\main\java\com\cisco\main\MuleEnvEditExecutor.java
C:\Users\arubalac\AnypointStudio\Workspace-3.8.0\AGWDeploymentService_1.6.9LT(Mavenize)-NPRD\src\main\java\com\cisco\main\SharedGatewayPropFileExecutor.java
C:\Users\arubalac\AnypointStudio\Workspace-3.8.0\AGWDeploymentService_1.6.9LT(Mavenize)-NPRD\src\main\java\com\cisco\main\UploadAppToRepoExecutor.java
C:\Users\arubalac\AnypointStudio\Workspace-3.8.0\AGWDeploymentService_1.6.9LT(Mavenize)-NPRD\src\main\java\com\cisco\main\AppIdLookupExecutor.java
C:\Users\arubalac\AnypointStudio\Workspace-3.8.0\AGWDeploymentService_1.6.9LT(Mavenize)-NPRD\src\main\java\com\cisco\proxy\HTTPBasedProxyUpdater.java
C:\Users\arubalac\AnypointStudio\Workspace-3.8.0\AGWDeploymentService_1.6.9LT(Mavenize)-NPRD\src\main\java\com\cisco\exception\ConfigFileCheckException.java
C:\Users\arubalac\AnypointStudio\Workspace-3.8.0\AGWDeploymentService_1.6.9LT(Mavenize)-NPRD\src\main\java\com\cisco\main\ReviewExecutor.java
C:\Users\arubalac\AnypointStudio\Workspace-3.8.0\AGWDeploymentService_1.6.9LT(Mavenize)-NPRD\src\main\java\com\cisco\zip\manage\Unzip.java
C:\Users\arubalac\AnypointStudio\Workspace-3.8.0\AGWDeploymentService_1.6.9LT(Mavenize)-NPRD\src\main\java\com\cisco\zip\manage\UnzipUtility.java
C:\Users\arubalac\AnypointStudio\Workspace-3.8.0\AGWDeploymentService_1.6.9LT(Mavenize)-NPRD\src\main\java\com\cisco\bean\SrvlResponse.java
C:\Users\arubalac\AnypointStudio\Workspace-3.8.0\AGWDeploymentService_1.6.9LT(Mavenize)-NPRD\src\main\java\com\cisco\properties\PropertyFileValidator.java
C:\Users\arubalac\AnypointStudio\Workspace-3.8.0\AGWDeploymentService_1.6.9LT(Mavenize)-NPRD\src\main\java\com\cisco\exception\ValidationOverrideException.java
C:\Users\arubalac\AnypointStudio\Workspace-3.8.0\AGWDeploymentService_1.6.9LT(Mavenize)-NPRD\src\main\java\com\cisco\main\DeleteZipExecutor.java
C:\Users\arubalac\AnypointStudio\Workspace-3.8.0\AGWDeploymentService_1.6.9LT(Mavenize)-NPRD\src\main\java\com\cisco\main\RenameZipExecutor.java
C:\Users\arubalac\AnypointStudio\Workspace-3.8.0\AGWDeploymentService_1.6.9LT(Mavenize)-NPRD\src\main\java\com\cisco\main\MMCDetailsListingExecutor.java
C:\Users\arubalac\AnypointStudio\Workspace-3.8.0\AGWDeploymentService_1.6.9LT(Mavenize)-NPRD\src\main\java\com\cisco\cleanup\TearDown.java
C:\Users\arubalac\AnypointStudio\Workspace-3.8.0\AGWDeploymentService_1.6.9LT(Mavenize)-NPRD\src\main\java\com\cisco\main\DefaultConfigGenExecutor.java
C:\Users\arubalac\AnypointStudio\Workspace-3.8.0\AGWDeploymentService_1.6.9LT(Mavenize)-NPRD\src\main\java\com\cisco\main\Log4jXMLGenExecutor.java
C:\Users\arubalac\AnypointStudio\Workspace-3.8.0\AGWDeploymentService_1.6.9LT(Mavenize)-NPRD\src\main\java\com\cisco\main\DomainEnvEditExecutor.java
C:\Users\arubalac\AnypointStudio\Workspace-3.8.0\AGWDeploymentService_1.6.9LT(Mavenize)-NPRD\src\main\java\com\cisco\log\Log4jXMLGenerator.java
C:\Users\arubalac\AnypointStudio\Workspace-3.8.0\AGWDeploymentService_1.6.9LT(Mavenize)-NPRD\src\main\java\com\cisco\main\TearDownExecutor.java
C:\Users\arubalac\AnypointStudio\Workspace-3.8.0\AGWDeploymentService_1.6.9LT(Mavenize)-NPRD\src\main\java\com\cisco\deployment\Deployment.java
C:\Users\arubalac\AnypointStudio\Workspace-3.8.0\AGWDeploymentService_1.6.9LT(Mavenize)-NPRD\src\main\java\com\cisco\proxy\WSDLBasedProxyUpdater.java
C:\Users\arubalac\AnypointStudio\Workspace-3.8.0\AGWDeploymentService_1.6.9LT(Mavenize)-NPRD\src\main\java\com\cisco\main\ConfigPropNameExtractExecutor.java
C:\Users\arubalac\AnypointStudio\Workspace-3.8.0\AGWDeploymentService_1.6.9LT(Mavenize)-NPRD\src\main\java\com\cisco\exception\ProxyFilterException.java
C:\Users\arubalac\AnypointStudio\Workspace-3.8.0\AGWDeploymentService_1.6.9LT(Mavenize)-NPRD\src\main\java\com\cisco\validate\ProxyFilter.java
C:\Users\arubalac\AnypointStudio\Workspace-3.8.0\AGWDeploymentService_1.6.9LT(Mavenize)-NPRD\src\main\java\com\cisco\zip\manage\ZipUtility.java
C:\Users\arubalac\AnypointStudio\Workspace-3.8.0\AGWDeploymentService_1.6.9LT(Mavenize)-NPRD\src\main\java\com\cisco\properties\MultitenancyPropertyGen.java
C:\Users\arubalac\AnypointStudio\Workspace-3.8.0\AGWDeploymentService_1.6.9LT(Mavenize)-NPRD\src\main\java\com\cisco\main\ZipExecutor.java
C:\Users\arubalac\AnypointStudio\Workspace-3.8.0\AGWDeploymentService_1.6.9LT(Mavenize)-NPRD\src\main\java\com\cisco\main\APIUnavailableExceptionExecutor.java
C:\Users\arubalac\AnypointStudio\Workspace-3.8.0\AGWDeploymentService_1.6.9LT(Mavenize)-NPRD\src\main\java\com\cisco\main\ExeGroupMapExecutor.java
C:\Users\arubalac\AnypointStudio\Workspace-3.8.0\AGWDeploymentService_1.6.9LT(Mavenize)-NPRD\src\main\java\com\cisco\proxy\ProxyTypeSelector.java
C:\Users\arubalac\AnypointStudio\Workspace-3.8.0\AGWDeploymentService_1.6.9LT(Mavenize)-NPRD\src\main\java\com\cisco\main\ConfigPropCheckExecutor.java
C:\Users\arubalac\AnypointStudio\Workspace-3.8.0\AGWDeploymentService_1.6.9LT(Mavenize)-NPRD\src\main\java\com\cisco\main\DeleteDeploymentExceutor.java
C:\Users\arubalac\AnypointStudio\Workspace-3.8.0\AGWDeploymentService_1.6.9LT(Mavenize)-NPRD\src\main\java\com\cisco\main\ProxyUpdateExecutor.java
C:\Users\arubalac\AnypointStudio\Workspace-3.8.0\AGWDeploymentService_1.6.9LT(Mavenize)-NPRD\src\main\java\com\cisco\main\MMCHostNameLookupExecutor.java
C:\Users\arubalac\AnypointStudio\Workspace-3.8.0\AGWDeploymentService_1.6.9LT(Mavenize)-NPRD\src\main\java\com\cisco\main\OverrideActionExceutor.java
C:\Users\arubalac\AnypointStudio\Workspace-3.8.0\AGWDeploymentService_1.6.9LT(Mavenize)-NPRD\src\main\java\com\cisco\main\ClusterIdMMCHostExtractExecutor.java
C:\Users\arubalac\AnypointStudio\Workspace-3.8.0\AGWDeploymentService_1.6.9LT(Mavenize)-NPRD\src\main\java\com\cisco\exception\APIUnavailableException.java
C:\Users\arubalac\AnypointStudio\Workspace-3.8.0\AGWDeploymentService_1.6.9LT(Mavenize)-NPRD\src\main\java\com\cisco\main\ProxyUrlExtractExecutor.java
C:\Users\arubalac\AnypointStudio\Workspace-3.8.0\AGWDeploymentService_1.6.9LT(Mavenize)-NPRD\src\main\java\com\cisco\properties\CredentialDecoder.java
